LABS/LAB2/bcd_tb.vcd
$date
	Mon Feb 16 08:36:21 2026
$end
$version
	Icarus Verilog
$end
$timescale
	1s
$end
$scope module BCD_tb $end
$var wire 7 ! bcd_out [0:6] $end
$var reg 4 " bcd_in [3:0] $end
$scope module DUT $end
$var wire 4 # bcd_in [3:0] $end
$var reg 7 $ bcd_out [0:6] $end
$upscope $end
$upscope $end
$enddefinitions $end
$comment Show the parameter values. $end
$dumpall
$end
#0
$dumpvars
b110011 $
b100 #
b100 "
b110011 !
$end
#10
b110000 !
b110000 $
b1 "
b1 #
#20
b1111011 !
b1111011 $
b1001 "
b1001 #
#30
b1111001 !
b1111001 $
b11 "
b11 #
#40
b0 !
b0 $
b1101 "
b1101 #
#60
b1011011 !
b1011011 $
b101 "
b101 #
#70
b1101101 !
b1101101 $
b10 "
b10 #
#80
b110000 !
b110000 $
b1 "
b1 #
#90
b0 !
b0 $
b1101 "
b1101 #
#100
b1011111 !
b1011111 $
b110 "
b110 #
#110
b0 !
b0 $
b1101 "
b1101 #
#130
b1100 "
b1100 #
#140
b1111011 !
b1111011 $
b1001 "
b1001 #
#150
b1011111 !
b1011111 $
b110 "
b110 #
#160
b1011011 !
b1011011 $
b101 "
b101 #
#170
b0 !
b0 $
b1010 "
b1010 #
#180
b1011011 !
b1011011 $
b101 "
b101 #
#190
b1110000 !
b1110000 $
b111 "
b111 #
#200
b1101101 !
b1101101 $
b10 "
b10 #
#210
b0 !
b0 $
b1111 "
b1111 #
#220
b1101101 !
b1101101 $
b10 "
b10 #
#230
b0 !
b0 $
b1110 "
b1110 #
#240
b1111111 !
b1111111 $
b1000 "
b1000 #
#250
b1011011 !
b1011011 $
b101 "
b101 #
#260
b0 !
b0 $
b1100 "
b1100 #
#270
b1101 "
b1101 #
#290
b1011011 !
b1011011 $
b101 "
b101 #
#300
b1111001 !
b1111001 $
b11 "
b11 #
#310
b0 !
b0 $
b1010 "
b1010 #
#320
b1111110 !
b1111110 $
b0 "
b0 #
#340
b0 !
b0 $
b1010 "
b1010 #
#350
b1101 "
b1101 #
#360
b1011111 !
b1011111 $
b110 "
b110 #
#370
b1111001 !
b1111001 $
b11 "
b11 #
#380
b0 !
b0 $
b1101 "
b1101 #
#390
b1111001 !
b1111001 $
b11 "
b11 #
#400
b0 !
b0 $
b1011 "
b1011 #
#410
b1011011 !
b1011011 $
b101 "
b101 #
#420
b1101101 !
b1101101 $
b10 "
b10 #
#430
b0 !
b0 $
b1110 "
b1110 #
#440
b1101 "
b1101 #
#450
b1111 "
b1111 #
#460
b1111001 !
b1111001 $
b11 "
b11 #
#470
b0 !
b0 $
b1010 "
b1010 #
#490
b1100 "
b1100 #
