LABS/COUNTER/counter_bcd.vcd
$date
	Wed Feb 18 09:55:00 2026
$end
$version
	Icarus Verilog
$end
$timescale
	1s
$end
$scope module counter_bcd_tb $end
$var wire 4 ! count [3:0] $end
$var reg 1 " clk $end
$var reg 1 # rst $end
$scope module dut $end
$var wire 1 " clk $end
$var wire 1 # rst $end
$var reg 4 $ count [3:0] $end
$upscope $end
$upscope $end
$enddefinitions $end
$comment Show the parameter values. $end
$dumpall
$end
#0
$dumpvars
bx $
1#
0"
bx !
$end
#5
b0 !
b0 $
1"
#10
0"
#15
1"
#20
0"
#25
1"
#30
0"
#35
1"
#40
0"
#45
1"
#50
0"
#55
1"
#60
0"
#65
1"
#70
0"
#75
1"
#80
0"
#85
1"
#90
0"
#95
1"
#100
0"
0#
#105
b1 !
b1 $
1"
#110
0"
#115
b10 !
b10 $
1"
#120
0"
#125
b11 !
b11 $
1"
#130
0"
#135
b100 !
b100 $
1"
#140
0"
#145
b101 !
b101 $
1"
#150
0"
#155
b110 !
b110 $
1"
#160
0"
#165
b111 !
b111 $
1"
#170
0"
#175
b1000 !
b1000 $
1"
#180
0"
#185
b1001 !
b1001 $
1"
#190
0"
#195
b0 !
b0 $
1"
#200
0"
#205
b1 !
b1 $
1"
#210
0"
#215
b10 !
b10 $
1"
#220
0"
#225
b11 !
b11 $
1"
#230
0"
#235
b100 !
b100 $
1"
#240
0"
#245
b101 !
b101 $
1"
#250
0"
#255
b110 !
b110 $
1"
#260
0"
#265
b111 !
b111 $
1"
#270
0"
#275
b1000 !
b1000 $
1"
#280
0"
#285
b1001 !
b1001 $
1"
#290
0"
#295
b0 !
b0 $
1"
#300
0"
1#
#305
1"
#310
0"
#315
1"
#320
0"
0#
#325
b1 !
b1 $
1"
#330
0"
#335
b10 !
b10 $
1"
#340
0"
#345
b11 !
b11 $
1"
#350
0"
#355
b100 !
b100 $
1"
#360
0"
#365
b101 !
b101 $
1"
#370
0"
#375
b110 !
b110 $
1"
#380
0"
#385
b111 !
b111 $
1"
#390
0"
#395
b1000 !
b1000 $
1"
#400
0"
#405
b1001 !
b1001 $
1"
#410
0"
#415
b0 !
b0 $
1"
