ASSIGNMENTS/PRAC_2/BCD_4displays_tb.vcd
$date
	Wed Feb 18 08:28:13 2026
$end
$version
	Icarus Verilog
$end
$timescale
	1s
$end
$scope module BCD_4displays_tb $end
$var wire 7 ! D_un [6:0] $end
$var wire 7 " D_mi [6:0] $end
$var wire 7 # D_de [6:0] $end
$var wire 7 $ D_ce [6:0] $end
$var reg 10 % bcd_in [9:0] $end
$scope module DUT $end
$var wire 10 & bcd_in [9:0] $end
$var wire 4 ' unidades [3:0] $end
$var wire 4 ( milares [3:0] $end
$var wire 4 ) decenas [3:0] $end
$var wire 4 * centenas [3:0] $end
$var wire 7 + D_un [6:0] $end
$var wire 7 , D_mi [6:0] $end
$var wire 7 - D_de [6:0] $end
$var wire 7 . D_ce [6:0] $end
$var parameter 32 / N_in $end
$var parameter 32 0 N_out $end
$scope module cent $end
$var wire 4 1 bcd_in [3:0] $end
$var reg 7 2 bcd_out [0:6] $end
$upscope $end
$scope module dec $end
$var wire 4 3 bcd_in [3:0] $end
$var reg 7 4 bcd_out [0:6] $end
$upscope $end
$scope module mil $end
$var wire 4 5 bcd_in [3:0] $end
$var reg 7 6 bcd_out [0:6] $end
$upscope $end
$scope module un $end
$var wire 4 7 bcd_in [3:0] $end
$var reg 7 8 bcd_out [0:6] $end
$upscope $end
$upscope $end
$upscope $end
$enddefinitions $end
$comment Show the parameter values. $end
$dumpall
b111 0
b1010 /
$end
#0
$dumpvars
b110011 8
b100 7
b1111110 6
b0 5
b110000 4
b1 3
b1111011 2
b1001 1
b1111011 .
b110000 -
b1111110 ,
b110011 +
b1001 *
b1 )
b0 (
b100 '
b1110010010 &
b1110010010 %
b1111011 $
b110000 #
b1111110 "
b110011 !
$end
#10
b1011011 !
b1011011 +
b1011011 8
b1101101 #
b1101101 -
b1101101 4
b1101101 $
b1101101 .
b1101101 2
b101 '
b101 7
b10 )
b10 3
b10 *
b10 1
b11100001 %
b11100001 &
#20
b110000 !
b110000 +
b110000 8
b1111110 #
b1111110 -
b1111110 4
b1111011 $
b1111011 .
b1111011 2
b1 '
b1 7
b0 )
b0 3
b1001 *
b1001 1
b1110000101 %
b1110000101 &
#30
b1110000 !
b1110000 +
b1110000 8
b110011 $
b110011 .
b110011 2
b111 '
b111 7
b100 *
b100 1
b110010111 %
b110010111 &
#40
b110000 !
b110000 +
b110000 8
b1110000 #
b1110000 -
b1110000 4
b1 '
b1 7
b111 )
b111 3
b111010111 %
b111010111 &
#50
b1101101 !
b1101101 +
b1101101 8
b1111111 #
b1111111 -
b1111111 4
b10 '
b10 7
b1000 )
b1000 3
b111100010 %
b111100010 &
#60
b1111110 !
b1111110 +
b1111110 8
b1011011 #
b1011011 -
b1011011 4
b1111110 $
b1111110 .
b1111110 2
b0 '
b0 7
b101 )
b101 3
b0 *
b0 1
b110010 %
b110010 &
#70
b110000 !
b110000 +
b110000 8
b1101101 #
b1101101 -
b1101101 4
b110000 $
b110000 .
b110000 2
b1 '
b1 7
b10 )
b10 3
b1 *
b1 1
b1111001 %
b1111001 &
#80
b1111011 !
b1111011 +
b1111011 8
b1111110 #
b1111110 -
b1111110 4
b1111110 $
b1111110 .
b1111110 2
b1001 '
b1001 7
b0 )
b0 3
b0 *
b0 1
b1001 %
b1001 &
#90
b1110000 !
b1110000 +
b1110000 8
b1110000 #
b1110000 -
b1110000 4
b1111111 $
b1111111 .
b1111111 2
b111 '
b111 7
b111 )
b111 3
b1000 *
b1000 1
b1101101101 %
b1101101101 &
#100
b1111011 !
b1111011 +
b1111011 8
b110011 #
b110011 -
b110011 4
b1011011 $
b1011011 .
b1011011 2
b1001 '
b1001 7
b100 )
b100 3
b101 *
b101 1
b1000100101 %
b1000100101 &
#110
b1011011 !
b1011011 +
b1011011 8
b1011111 #
b1011111 -
b1011111 4
b1011111 $
b1011111 .
b1011111 2
b101 '
b101 7
b110 )
b110 3
b110 *
b110 1
b1010011001 %
b1010011001 &
#120
b110011 !
b110011 +
b110011 8
b110000 #
b110000 -
b110000 4
b110000 $
b110000 .
b110000 2
b100 '
b100 7
b1 )
b1 3
b1 *
b1 1
b1110010 %
b1110010 &
#130
b1110000 !
b1110000 +
b1110000 8
b1110000 #
b1110000 -
b1110000 4
b1111111 $
b1111111 .
b1111111 2
b111 '
b111 7
b111 )
b111 3
b1000 *
b1000 1
b1101101101 %
b1101101101 &
#140
b1011011 !
b1011011 +
b1011011 8
b1101101 #
b1101101 -
b1101101 4
b1111001 $
b1111001 .
b1111001 2
b101 '
b101 7
b10 )
b10 3
b11 *
b11 1
b101000101 %
b101000101 &
#150
b1111011 #
b1111011 -
b1111011 4
b110000 $
b110000 .
b110000 2
b1001 )
b1001 3
b1 *
b1 1
b11000011 %
b11000011 &
#160
b110011 !
b110011 +
b110011 8
b110000 #
b110000 -
b110000 4
b1101101 $
b1101101 .
b1101101 2
b100 '
b100 7
b1 )
b1 3
b10 *
b10 1
b11010110 %
b11010110 &
#170
b1111110 !
b1111110 +
b1111110 8
b110011 #
b110011 -
b110011 4
b0 '
b0 7
b100 )
b100 3
b11110000 %
b11110000 &
#180
b1111001 !
b1111001 +
b1111001 8
b1111111 #
b1111111 -
b1111111 4
b1110000 $
b1110000 .
b1110000 2
b11 '
b11 7
b1000 )
b1000 3
b111 *
b111 1
b1100001111 %
b1100001111 &
#190
b1111110 !
b1111110 +
b1111110 8
b1101101 #
b1101101 -
b1101101 4
b0 '
b0 7
b10 )
b10 3
b1011010000 %
b1011010000 &
#200
b1110000 !
b1110000 +
b1110000 8
b1011011 #
b1011011 -
b1011011 4
b1111111 $
b1111111 .
b1111111 2
b111 '
b111 7
b101 )
b101 3
b1000 *
b1000 1
b1101011001 %
b1101011001 &
#210
b1111001 #
b1111001 -
b1111001 4
b11 )
b11 3
b1101000101 %
b1101000101 &
#220
b110000 #
b110000 -
b110000 4
b110011 $
b110011 .
b110011 2
b1 )
b1 3
b100 *
b100 1
b110100001 %
b110100001 &
#230
b110011 #
b110011 -
b110011 4
b1110000 $
b1110000 .
b1110000 2
b100 )
b100 3
b111 *
b111 1
b1011101011 %
b1011101011 &
#240
b1111001 !
b1111001 +
b1111001 8
b1111111 #
b1111111 -
b1111111 4
b1011011 $
b1011011 .
b1011011 2
b11 '
b11 7
b1000 )
b1000 3
b101 *
b101 1
b1001000111 %
b1001000111 &
#250
b110000 !
b110000 +
b110000 8
b1111110 #
b1111110 -
b1111110 4
b1111011 $
b1111011 .
b1111011 2
b1 '
b1 7
b0 )
b0 3
b1001 *
b1001 1
b1110000101 %
b1110000101 &
#260
b1011111 !
b1011111 +
b1011111 8
b1111011 #
b1111011 -
b1111011 4
b1011011 $
b1011011 .
b1011011 2
b110 '
b110 7
b1001 )
b1001 3
b101 *
b101 1
b1001010100 %
b1001010100 &
#270
b1111110 !
b1111110 +
b1111110 8
b1011111 #
b1011111 -
b1011111 4
b0 '
b0 7
b110 )
b110 3
b1000110000 %
b1000110000 &
#280
b1111011 !
b1111011 +
b1111011 8
b1111110 #
b1111110 -
b1111110 4
b110000 $
b110000 .
b110000 2
b1001 '
b1001 7
b0 )
b0 3
b1 *
b1 1
b1101101 %
b1101101 &
#290
b1011111 !
b1011111 +
b1011111 8
b1011011 #
b1011011 -
b1011011 4
b1111111 $
b1111111 .
b1111111 2
b110 '
b110 7
b101 )
b101 3
b1000 *
b1000 1
b1101011000 %
b1101011000 &
#300
b110011 #
b110011 -
b110011 4
b1111001 $
b1111001 .
b1111001 2
b100 )
b100 3
b11 *
b11 1
b101011010 %
b101011010 &
#310
b1110000 !
b1110000 +
b1110000 8
b1011111 #
b1011111 -
b1011111 4
b1111110 $
b1111110 .
b1111110 2
b111 '
b111 7
b110 )
b110 3
b0 *
b0 1
b1000011 %
b1000011 &
#320
b1101101 !
b1101101 +
b1101101 8
b1111001 #
b1111001 -
b1111001 4
b1111001 $
b1111001 .
b1111001 2
b10 '
b10 7
b11 )
b11 3
b11 *
b11 1
b101001100 %
b101001100 &
#330
b110011 !
b110011 +
b110011 8
b110000 #
b110000 -
b110000 4
b1111111 $
b1111111 .
b1111111 2
b100 '
b100 7
b1 )
b1 3
b1000 *
b1000 1
b1100101110 %
b1100101110 &
#340
b1011111 !
b1011111 +
b1011111 8
b1110000 #
b1110000 -
b1110000 4
b1101101 $
b1101101 .
b1101101 2
b110 '
b110 7
b111 )
b111 3
b10 *
b10 1
b100010100 %
b100010100 &
#350
b1111011 !
b1111011 +
b1111011 8
b1111111 #
b1111111 -
b1111111 4
b110000 $
b110000 .
b110000 2
b1001 '
b1001 7
b1000 )
b1000 3
b1 *
b1 1
b10111101 %
b10111101 &
#360
b1011011 !
b1011011 +
b1011011 8
b1011011 #
b1011011 -
b1011011 4
b1111111 $
b1111111 .
b1111111 2
b101 '
b101 7
b101 )
b101 3
b1000 *
b1000 1
b1101010111 %
b1101010111 &
#370
b1111111 !
b1111111 +
b1111111 8
b1111110 #
b1111110 -
b1111110 4
b110011 $
b110011 .
b110011 2
b1000 '
b1000 7
b0 )
b0 3
b100 *
b100 1
b110011000 %
b110011000 &
#380
b110000 !
b110000 +
b110000 8
b1111011 $
b1111011 .
b1111011 2
b1 '
b1 7
b1001 *
b1001 1
b1110000101 %
b1110000101 &
#390
b1111111 !
b1111111 +
b1111111 8
b1111001 #
b1111001 -
b1111001 4
b1110000 $
b1110000 .
b1110000 2
b1000 '
b1000 7
b11 )
b11 3
b111 *
b111 1
b1011100010 %
b1011100010 &
#400
b1111011 !
b1111011 +
b1111011 8
b1111111 #
b1111111 -
b1111111 4
b110000 $
b110000 .
b110000 2
b1001 '
b1001 7
b1000 )
b1000 3
b1 *
b1 1
b10111101 %
b10111101 &
#410
b1111111 !
b1111111 +
b1111111 8
b1110000 #
b1110000 -
b1110000 4
b1110000 $
b1110000 .
b1110000 2
b1000 '
b1000 7
b111 )
b111 3
b111 *
b111 1
b1100001010 %
b1100001010 &
#420
b1011111 !
b1011111 +
b1011111 8
b1111011 #
b1111011 -
b1111011 4
b1111011 $
b1111011 .
b1111011 2
b110 '
b110 7
b1001 )
b1001 3
b1001 *
b1001 1
b1111100100 %
b1111100100 &
#430
b1011011 !
b1011011 +
b1011011 8
b1111001 #
b1111001 -
b1111001 4
b110011 $
b110011 .
b110011 2
b101 '
b101 7
b11 )
b11 3
b100 *
b100 1
b110110011 %
b110110011 &
#440
b1111011 !
b1111011 +
b1111011 8
b110000 #
b110000 -
b110000 4
b1011011 $
b1011011 .
b1011011 2
b1001 '
b1001 7
b1 )
b1 3
b101 *
b101 1
b1000000111 %
b1000000111 &
#450
b1111110 !
b1111110 +
b1111110 8
b1111111 #
b1111111 -
b1111111 4
b1011111 $
b1011111 .
b1011111 2
b0 '
b0 7
b1000 )
b1000 3
b110 *
b110 1
b1010101000 %
b1010101000 &
#460
b1011011 !
b1011011 +
b1011011 8
b110011 #
b110011 -
b110011 4
b1111111 $
b1111111 .
b1111111 2
b101 '
b101 7
b100 )
b100 3
b1000 *
b1000 1
b1101001101 %
b1101001101 &
#470
b1110000 !
b1110000 +
b1110000 8
b1111011 $
b1111011 .
b1111011 2
b111 '
b111 7
b1001 *
b1001 1
b1110110011 %
b1110110011 &
#480
b110011 !
b110011 +
b110011 8
b1111111 #
b1111111 -
b1111111 4
b110011 $
b110011 .
b110011 2
b100 '
b100 7
b1000 )
b1000 3
b100 *
b100 1
b111100100 %
b111100100 &
#490
b1011011 !
b1011011 +
b1011011 8
b1101101 #
b1101101 -
b1101101 4
b1011111 $
b1011111 .
b1011111 2
b101 '
b101 7
b10 )
b10 3
b110 *
b110 1
b1001110001 %
b1001110001 &
