ASSIGNMENTS/PRAC_1/Prim4_tb.vcd
$date
	Fri Feb 13 08:51:07 2026
$end
$version
	Icarus Verilog
$end
$timescale
	1s
$end
$scope module Prim4_tb $end
$var wire 1 ! out $end
$var reg 4 " S [3:0] $end
$var integer 32 # C [31:0] $end
$scope module DUT $end
$var wire 4 $ S [3:0] $end
$var reg 1 ! out $end
$upscope $end
$upscope $end
$enddefinitions $end
$comment Show the parameter values. $end
$dumpall
$end
#0
$dumpvars
b0 $
b0 #
b0 "
0!
$end
#10
b1 "
b1 $
b1 #
#20
1!
b10 "
b10 $
b10 #
#30
b11 "
b11 $
b11 #
#40
0!
b100 "
b100 $
b100 #
#50
1!
b101 "
b101 $
b101 #
#60
0!
b110 "
b110 $
b110 #
#70
1!
b111 "
b111 $
b111 #
#80
0!
b1000 "
b1000 $
b1000 #
#90
b1001 "
b1001 $
b1001 #
#100
b1010 "
b1010 $
b1010 #
#110
1!
b1011 "
b1011 $
b1011 #
#120
0!
b1100 "
b1100 $
b1100 #
#130
1!
b1101 "
b1101 $
b1101 #
#140
0!
b1110 "
b1110 $
b1110 #
